Loaded module: studio/12u6
Loaded module: mpi/3.1.3-oracle-12u6
 # ___________ PROGRAM STARTED ___________ #

WARNING! Input time-step size (dt) is lower than Fourier limit or equal zero!Time-step size forced to the Fourier limit: dt =0.00000001
WARNING! Input time-step size (dt) is lower than Fourier limit or equal zero!Time-step size forced to the Fourier limit: dt =0.00000001
 elapsed wall clock time: 36.82048840999778
[n-62-29-13:16370] *** Process received signal ***
[n-62-29-13:16370] Signal: Segmentation fault (11)
[n-62-29-13:16370] Signal code: Address not mapped (1)
[n-62-29-13:16370] Failing at address: 0x8000
[n-62-29-13:16370] [ 0] /lib64/libpthread.so.0(+0xf630)[0x7fbcd7b47630]
[n-62-29-13:16370] [ 1] /opt/oracle/developerstudio12.6/lib/compilers/rtlibs/usr/lib/amd64/libfsu.so.1(__f90_sur_n+0x90d)[0x7fbcd8246acd]
[n-62-29-13:16370] [ 2] ./diff2d_mpi.e[0x407dc3]
[n-62-29-13:16370] [ 3] ./diff2d_mpi.e[0x4070df]
[n-62-29-13:16370] [ 4] /lib64/libc.so.6(__libc_start_main+0xf5)[0x7fbcd748a555]
[n-62-29-13:16370] [ 5] ./diff2d_mpi.e[0x4016f2]
[n-62-29-13:16370] *** End of error message ***
--------------------------------------------------------------------------
Primary job  terminated normally, but 1 process returned
a non-zero exit code. Per user-direction, the job has been aborted.
--------------------------------------------------------------------------
 RMS =  0.09754790104269191

 # ___________ PROGRAM SUCCESSFUL ___________ #
--------------------------------------------------------------------------
mpirun noticed that process rank 1 with PID 16370 on node n-62-29-13 exited on signal 11 (Segmentation fault).
--------------------------------------------------------------------------
