Loaded module: studio/12u6
Loaded module: mpi/3.1.3-oracle-12u6
 # ___________ PROGRAM STARTED ___________ #

WARNING! Input time-step size (dt) is lower than Fourier limit or equal zero!Time-step size forced to the Fourier limit: dt =0.00000001
WARNING! Input time-step size (dt) is lower than Fourier limit or equal zero!Time-step size forced to the Fourier limit: dt =0.00000001
WARNING! Input time-step size (dt) is lower than Fourier limit or equal zero!Time-step size forced to the Fourier limit: dt =0.00000001
WARNING! Input time-step size (dt) is lower than Fourier limit or equal zero!Time-step size forced to the Fourier limit: dt =0.00000001
WARNING! Input time-step size (dt) is lower than Fourier limit or equal zero!Time-step size forced to the Fourier limit: dt =0.00000001
WARNING! Input time-step size (dt) is lower than Fourier limit or equal zero!Time-step size forced to the Fourier limit: dt =0.00000001
WARNING! Input time-step size (dt) is lower than Fourier limit or equal zero!Time-step size forced to the Fourier limit: dt =0.00000001
WARNING! Input time-step size (dt) is lower than Fourier limit or equal zero!Time-step size forced to the Fourier limit: dt =0.00000001
WARNING! Input time-step size (dt) is lower than Fourier limit or equal zero!Time-step size forced to the Fourier limit: dt =0.00000001
WARNING! Input time-step size (dt) is lower than Fourier limit or equal zero!Time-step size forced to the Fourier limit: dt =0.00000001
WARNING! Input time-step size (dt) is lower than Fourier limit or equal zero!Time-step size forced to the Fourier limit: dt =0.00000001
WARNING! Input time-step size (dt) is lower than Fourier limit or equal zero!Time-step size forced to the Fourier limit: dt =0.00000001
 elapsed wall clock time: 6.681124511989765
[n-62-31-1:139649] *** Process received signal ***
[n-62-31-1:139649] Signal: Segmentation fault (11)
[n-62-31-1:139649] Signal code: Address not mapped (1)
[n-62-31-1:139649] Failing at address: 0x8000
[n-62-31-1:139649] [ 0] /lib64/libpthread.so.0(+0xf630)[0x7f9455310630]
[n-62-31-1:139649] [ 1] /opt/oracle/developerstudio12.6/lib/compilers/rtlibs/usr/lib/amd64/libfsu.so.1(__f90_sur_n+0x90d)[0x7f9455a0facd]
[n-62-31-1:139649] [ 2] ./diff2d_mpi.e[0x407dc3]
[n-62-31-1:139649] [ 3] ./diff2d_mpi.e[0x4070df]
[n-62-31-1:139649] [ 4] /lib64/libc.so.6(__libc_start_main+0xf5)[0x7f9454c53555]
[n-62-31-1:139649] [n-62-31-10:232294] *** Process received signal ***
[ 5] ./diff2d_mpi.e[0x4016f2]
[n-62-31-10:232294] Signal: Segmentation fault (11)
[n-62-31-10:232294] Signal code: Address not mapped (1)
[n-62-31-10:232294] Failing at address: 0x10000
[n-62-31-1:139649] *** End of error message ***
[n-62-31-10:232294] [ 0] /lib64/libpthread.so.0(+0xf630)[0x7f53c9d15630]
[n-62-31-10:232294] [ 1] /opt/oracle/developerstudio12.6/lib/compilers/rtlibs/usr/lib/amd64/libfsu.so.1(__f90_sur_n+0x8ea)[0x7f53ca414aaa]
[n-62-31-10:232294] [ 2] ./diff2d_mpi.e[0x407dc3]
[n-62-31-10:232294] [ 3] ./diff2d_mpi.e[0x4070df]
[n-62-31-10:232294] [ 4] /lib64/libc.so.6(__libc_start_main+0xf5)[0x7f53c9658555]
[n-62-31-10:232294] [ 5] ./diff2d_mpi.e[0x4016f2]
[n-62-31-10:232294] *** End of error message ***
[n-62-31-12:214257] *** Process received signal ***
[n-62-31-12:214257] Signal: Segmentation fault (11)
[n-62-31-12:214257] Signal code: Address not mapped (1)
[n-62-31-12:214257] Failing at address: 0x18000
[n-62-31-12:214257] [ 0] /lib64/libpthread.so.0(+0xf630)[0x7f9fc2419630]
[n-62-31-12:214257] [ 1] /opt/oracle/developerstudio12.6/lib/compilers/rtlibs/usr/lib/amd64/libfsu.so.1(__f90_sur_n+0x8ea)[0x7f9fc2b18aaa]
[n-62-31-12:214257] [ 2] ./diff2d_mpi.e[0x407dc3]
[n-62-31-12:214257] [ 3] ./diff2d_mpi.e[0x4070df]
[n-62-31-12:214257] [ 4] /lib64/libc.so.6(__libc_start_main+0xf5)[0x7f9fc1d5c555]
[n-62-31-12:214257] [ 5] ./diff2d_mpi.e[0x4016f2]
[n-62-31-12:214257] *** End of error message ***
[n-62-31-14:227437] *** Process received signal ***
[n-62-31-14:227437] Signal: Segmentation fault (11)
[n-62-31-14:227437] Signal code: Address not mapped (1)
[n-62-31-14:227437] Failing at address: 0x20000
[n-62-31-14:227437] [ 0] /lib64/libpthread.so.0(+0xf630)[0x7f58dce17630]
[n-62-31-14:227437] [ 1] /opt/oracle/developerstudio12.6/lib/compilers/rtlibs/usr/lib/amd64/libfsu.so.1(__f90_sur_n+0x8b0)[0x7f58dd516a70]
[n-62-31-14:227437] [ 2] ./diff2d_mpi.e[0x407dc3]
[n-62-31-14:227437] [ 3] ./diff2d_mpi.e[0x4070df]
[n-62-31-14:227437] [ 4] /lib64/libc.so.6(__libc_start_main+0xf5)[0x7f58dc75a555]
[n-62-31-14:227437] [ 5] ./diff2d_mpi.e[0x4016f2]
[n-62-31-14:227437] *** End of error message ***
[n-62-31-13:61430] *** Process received signal ***
[n-62-31-13:61430] Signal: Segmentation fault (11)
[n-62-31-13:61430] Signal code: Address not mapped (1)
[n-62-31-13:61430] Failing at address: 0x28000
[n-62-31-13:61430] [ 0] /lib64/libpthread.so.0(+0xf630)[0x7f4f3c77d630]
[n-62-31-13:61430] [ 1] /opt/oracle/developerstudio12.6/lib/compilers/rtlibs/usr/lib/amd64/libfsu.so.1(__f90_sur_n+0x8b0)[0x7f4f3ce7ca70]
[n-62-31-13:61430] [ 2] ./diff2d_mpi.e[0x407dc3]
[n-62-31-13:61430] [ 3] ./diff2d_mpi.e[0x4070df]
[n-62-31-13:61430] [ 4] /lib64/libc.so.6(__libc_start_main+0xf5)[0x7f4f3c0c0555]
[n-62-31-13:61430] [ 5] ./diff2d_mpi.e[0x4016f2]
[n-62-31-13:61430] *** End of error message ***
[n-62-31-18:71712] *** Process received signal ***
[n-62-31-18:71712] Signal: Segmentation fault (11)
[n-62-31-18:71712] Signal code: Address not mapped (1)
[n-62-31-18:71712] Failing at address: 0x30000
[n-62-31-18:71712] [ 0] /lib64/libpthread.so.0(+0xf630)[0x7f3d3e1a4630]
[n-62-31-18:71712] [ 1] /opt/oracle/developerstudio12.6/lib/compilers/rtlibs/usr/lib/amd64/libfsu.so.1(__f90_sur_n+0x8b0)[0x7f3d3e8a3a70]
[n-62-31-18:71712] [ 2] ./diff2d_mpi.e[0x407dc3]
[n-62-31-18:71712] [ 3] ./diff2d_mpi.e[0x4070df]
[n-62-31-18:71712] [ 4] /lib64/libc.so.6(__libc_start_main+0xf5)[0x7f3d3dae7555]
[n-62-31-18:71712] [ 5] ./diff2d_mpi.e[0x4016f2]
[n-62-31-18:71712] *** End of error message ***
[n-62-31-2:130519] *** Process received signal ***
[n-62-31-2:130519] Signal: Segmentation fault (11)
[n-62-31-2:130519] Signal code: Address not mapped (1)
[n-62-31-2:130519] Failing at address: 0x38000
[n-62-31-6:116494] *** Process received signal ***
[n-62-31-6:116494] Signal: Segmentation fault (11)
[n-62-31-6:116494] Signal code: Address not mapped (1)
[n-62-31-6:116494] Failing at address: 0x40000
[n-62-31-16:226445] *** Process received signal ***
[n-62-31-2:130519] [ 0] [n-62-31-16:226445] Signal: Segmentation fault (11)
[n-62-31-16:226445] Signal code: Address not mapped (1)
[n-62-31-16:226445] Failing at address: 0x48000
/lib64/libpthread.so.0(+0xf630)[0x7fd69cf96630]
[n-62-31-2:130519] [ 1] /opt/oracle/developerstudio12.6/lib/compilers/rtlibs/usr/lib/amd64/libfsu.so.1(__f90_sur_n+0x8b0)[0x7fd69d695a70]
[n-62-31-2:130519] [ 2] ./diff2d_mpi.e[0x407dc3]
[n-62-31-2:130519] [ 3] ./diff2d_mpi.e[0x4070df]
[n-62-31-2:130519] [ 4] /lib64/libc.so.6(__libc_start_main+0xf5)[0x7fd69c8d9555]
[n-62-31-6:116494] [n-62-31-2:130519] [ 5] [ 0] ./diff2d_mpi.e[0x4016f2]
/lib64/libpthread.so.0(+0xf630)[0x7f92e7c5a630]
[n-62-31-2:130519] *** End of error message ***
[n-62-31-6:116494] [ 1] /opt/oracle/developerstudio12.6/lib/compilers/rtlibs/usr/lib/amd64/libfsu.so.1(__f90_sur_n+0x8b0)[0x7f92e8359a70]
[n-62-31-6:116494] [ 2] ./diff2d_mpi.e[0x407dc3]
[n-62-31-6:116494] [ 3] ./diff2d_mpi.e[0x4070df]
[n-62-31-6:116494] [ 4] /lib64/libc.so.6(__libc_start_main+0xf5)[0x7f92e759d555]
[n-62-31-6:116494] [ 5] ./diff2d_mpi.e[0x4016f2]
[n-62-31-6:116494] *** End of error message ***
[n-62-31-16:226445] [ 0] /lib64/libpthread.so.0(+0xf630)[0x7fa28002d630]
[n-62-31-16:226445] [ 1] /opt/oracle/developerstudio12.6/lib/compilers/rtlibs/usr/lib/amd64/libfsu.so.1(__f90_sur_n+0x8b0)[0x7fa28072ca70]
[n-62-31-16:226445] [ 2] ./diff2d_mpi.e[0x407dc3]
[n-62-31-16:226445] [ 3] ./diff2d_mpi.e[0x4070df]
[n-62-31-16:226445] [ 4] /lib64/libc.so.6(__libc_start_main+0xf5)[0x7fa27f970555]
[n-62-31-16:226445] [ 5] ./diff2d_mpi.e[0x4016f2]
[n-62-31-16:226445] *** End of error message ***
--------------------------------------------------------------------------
Primary job  terminated normally, but 1 process returned
a non-zero exit code. Per user-direction, the job has been aborted.
--------------------------------------------------------------------------
[n-62-31-7:50138] *** Process received signal ***
[n-62-31-7:50138] Signal: Segmentation fault (11)
[n-62-31-7:50138] Signal code: Address not mapped (1)
[n-62-31-7:50138] Failing at address: 0x50000
[n-62-31-8:110024] *** Process received signal ***
[n-62-31-8:110024] Signal: Segmentation fault (11)
[n-62-31-8:110024] Signal code: Address not mapped (1)
[n-62-31-8:110024] Failing at address: 0x58000
[n-62-31-8:110024] [ 0] /lib64/libpthread.so.0(+0xf630)[0x7ff866776630]
[n-62-31-8:110024] [ 1] /opt/oracle/developerstudio12.6/lib/compilers/rtlibs/usr/lib/amd64/libfsu.so.1(__f90_sur_n+0x8b0)[0x7ff866e75a70]
[n-62-31-8:110024] [ 2] ./diff2d_mpi.e[0x407dc3]
[n-62-31-8:110024] [ 3] ./diff2d_mpi.e[0x4070df]
[n-62-31-8:110024] [ 4] /lib64/libc.so.6(__libc_start_main+0xf5)[0x7ff8660b9555]
[n-62-31-8:110024] [ 5] ./diff2d_mpi.e[0x4016f2]
[n-62-31-8:110024] *** End of error message ***
[n-62-31-7:50138] [ 0] /lib64/libpthread.so.0(+0xf630)[0x7f027b879630]
[n-62-31-7:50138] [ 1] /opt/oracle/developerstudio12.6/lib/compilers/rtlibs/usr/lib/amd64/libfsu.so.1(__f90_sur_n+0x8b0)[0x7f027bf78a70]
[n-62-31-7:50138] [ 2] ./diff2d_mpi.e[0x407dc3]
[n-62-31-7:50138] [ 3] ./diff2d_mpi.e[0x4070df]
[n-62-31-7:50138] [ 4] /lib64/libc.so.6(__libc_start_main+0xf5)[0x7f027b1bc555]
[n-62-31-7:50138] [ 5] ./diff2d_mpi.e[0x4016f2]
[n-62-31-7:50138] *** End of error message ***
 RMS =  0.09882724765905093

 # ___________ PROGRAM SUCCESSFUL ___________ #
--------------------------------------------------------------------------
mpirun noticed that process rank 2 with PID 232294 on node n-62-31-10 exited on signal 11 (Segmentation fault).
--------------------------------------------------------------------------
2 total processes killed (some possibly by mpirun during cleanup)
