Loaded module: studio/12u6
Loaded module: mpi/3.1.3-oracle-12u6
 # ___________ PROGRAM STARTED ___________ #

WARNING! Input time-step size (dt) is lower than Fourier limit or equal zero!Time-step size forced to the Fourier limit: dt =0.00000001
WARNING! Input time-step size (dt) is lower than Fourier limit or equal zero!Time-step size forced to the Fourier limit: dt =0.00000001
WARNING! Input time-step size (dt) is lower than Fourier limit or equal zero!Time-step size forced to the Fourier limit: dt =0.00000001
WARNING! Input time-step size (dt) is lower than Fourier limit or equal zero!Time-step size forced to the Fourier limit: dt =0.00000001
WARNING! Input time-step size (dt) is lower than Fourier limit or equal zero!Time-step size forced to the Fourier limit: dt =0.00000001
WARNING! Input time-step size (dt) is lower than Fourier limit or equal zero!Time-step size forced to the Fourier limit: dt =0.00000001
WARNING! Input time-step size (dt) is lower than Fourier limit or equal zero!Time-step size forced to the Fourier limit: dt =0.00000001
WARNING! Input time-step size (dt) is lower than Fourier limit or equal zero!Time-step size forced to the Fourier limit: dt =0.00000001
WARNING! Input time-step size (dt) is lower than Fourier limit or equal zero!Time-step size forced to the Fourier limit: dt =0.00000001
WARNING! Input time-step size (dt) is lower than Fourier limit or equal zero!Time-step size forced to the Fourier limit: dt =0.00000001
WARNING! Input time-step size (dt) is lower than Fourier limit or equal zero!Time-step size forced to the Fourier limit: dt =0.00000001
WARNING! Input time-step size (dt) is lower than Fourier limit or equal zero!Time-step size forced to the Fourier limit: dt =0.00000001
WARNING! Input time-step size (dt) is lower than Fourier limit or equal zero!Time-step size forced to the Fourier limit: dt =0.00000001
WARNING! Input time-step size (dt) is lower than Fourier limit or equal zero!Time-step size forced to the Fourier limit: dt =0.00000001
WARNING! Input time-step size (dt) is lower than Fourier limit or equal zero!Time-step size forced to the Fourier limit: dt =0.00000001
WARNING! Input time-step size (dt) is lower than Fourier limit or equal zero!Time-step size forced to the Fourier limit: dt =0.00000001
 elapsed wall clock time: 4.561073996999767
--------------------------------------------------------------------------
Primary job  terminated normally, but 1 process returned
a non-zero exit code. Per user-direction, the job has been aborted.
--------------------------------------------------------------------------
[n-62-21-22:13101] *** Process received signal ***
[n-62-21-22:13101] Signal: Segmentation fault (11)
[n-62-21-22:13101] Signal code: Address not mapped (1)
[n-62-21-22:13101] Failing at address: 0x8000
[n-62-21-22:13101] [ 0] /lib64/libpthread.so.0(+0xf630)[0x7f051a141630]
[n-62-21-22:13101] [ 1] /opt/oracle/developerstudio12.6/lib/compilers/rtlibs/usr/lib/amd64/libfsu.so.1(__f90_sur_n+0x90d)[0x7f051a840acd]
[n-62-21-22:13101] [ 2] ./diff2d_mpi.e[0x407dc3]
[n-62-21-22:13101] [ 3] ./diff2d_mpi.e[0x4070df]
[n-62-21-22:13101] [ 4] /lib64/libc.so.6(__libc_start_main+0xf5)[0x7f0519a84555]
[n-62-21-22:13101] [ 5] ./diff2d_mpi.e[0x4016f2]
[n-62-21-22:13101] *** End of error message ***
[n-62-21-15:04712] *** Process received signal ***
[n-62-21-15:04712] Signal: Segmentation fault (11)
[n-62-21-15:04712] Signal code: Address not mapped (1)
[n-62-21-15:04712] Failing at address: 0x28000
[n-62-21-15:04712] [ 0] /lib64/libpthread.so.0(+0xf630)[0x7ff66c37f630]
[n-62-21-15:04712] [ 1] /opt/oracle/developerstudio12.6/lib/compilers/rtlibs/usr/lib/amd64/libfsu.so.1(__f90_sur_n+0x8b0)[0x7ff66ca7ea70]
[n-62-21-15:04712] [ 2] ./diff2d_mpi.e[0x407dc3]
[n-62-21-15:04712] [ 3] ./diff2d_mpi.e[0x4070df]
[n-62-21-15:04712] [ 4] /lib64/libc.so.6(__libc_start_main+0xf5)[0x7ff66bcc2555]
[n-62-21-15:04712] [ 5] ./diff2d_mpi.e[0x4016f2]
[n-62-21-15:04712] *** End of error message ***
[n-62-21-20:03351] *** Process received signal ***
[n-62-21-20:03351] Signal: Segmentation fault (11)
[n-62-21-20:03351] Signal code: Address not mapped (1)
[n-62-21-20:03351] Failing at address: 0x10000
 RMS =  0.0984579464154332

 # ___________ PROGRAM SUCCESSFUL ___________ #
[n-62-21-21:19266] *** Process received signal ***
[n-62-21-21:19266] Signal: Segmentation fault (11)
[n-62-21-21:19266] Signal code: Address not mapped (1)
[n-62-21-21:19266] Failing at address: 0x68000
[n-62-21-21:19266] [ 0] /lib64/libpthread.so.0(+0xf630)[0x7fdd08d51630]
[n-62-21-21:19266] [ 1] /opt/oracle/developerstudio12.6/lib/compilers/rtlibs/usr/lib/amd64/libfsu.so.1(__f90_sur_n+0x8b0)[0x7fdd09450a70]
[n-62-21-21:19266] [ 2] ./diff2d_mpi.e[0x407dc3]
[n-62-21-21:19266] [ 3] ./diff2d_mpi.e[0x4070df]
[n-62-21-21:19266] [ 4] /lib64/libc.so.6(__libc_start_main+0xf5)[0x7fdd08694555]
[n-62-21-21:19266] [ 5] ./diff2d_mpi.e[0x4016f2]
[n-62-21-21:19266] *** End of error message ***
[n-62-21-18:27962] *** Process received signal ***
[n-62-21-18:27962] Signal: Segmentation fault (11)
[n-62-21-18:27962] Signal code: Address not mapped (1)
[n-62-21-18:27962] Failing at address: 0x78000
[n-62-21-18:27962] [ 0] /lib64/libpthread.so.0(+0xf630)[0x7f0dcf95e630]
[n-62-21-18:27962] [ 1] /opt/oracle/developerstudio12.6/lib/compilers/rtlibs/usr/lib/amd64/libfsu.so.1(__f90_sur_n+0x8b0)[0x7f0dd005da70]
[n-62-21-18:27962] [ 2] ./diff2d_mpi.e[0x407dc3]
[n-62-21-18:27962] [ 3] ./diff2d_mpi.e[0x4070df]
[n-62-21-18:27962] [ 4] /lib64/libc.so.6(__libc_start_main+0xf5)[0x7f0dcf2a1555]
[n-62-21-18:27962] [ 5] ./diff2d_mpi.e[0x4016f2]
[n-62-21-18:27962] *** End of error message ***
[n-62-21-19:05481] *** Process received signal ***
[n-62-21-19:05481] Signal: Segmentation fault (11)
[n-62-21-19:05481] Signal code: Address not mapped (1)
[n-62-21-19:05481] Failing at address: 0x70000
[n-62-21-19:05481] [ 0] /lib64/libpthread.so.0(+0xf630)[0x7ff1cd0b5630]
[n-62-21-19:05481] [ 1] /opt/oracle/developerstudio12.6/lib/compilers/rtlibs/usr/lib/amd64/libfsu.so.1(__f90_sur_n+0x8b0)[0x7ff1cd7b4a70]
[n-62-21-19:05481] [ 2] ./diff2d_mpi.e[0x407dc3]
[n-62-21-19:05481] [ 3] ./diff2d_mpi.e[0x4070df]
[n-62-21-19:05481] [ 4] /lib64/libc.so.6(__libc_start_main+0xf5)[0x7ff1cc9f8555]
[n-62-21-19:05481] [ 5] ./diff2d_mpi.e[0x4016f2]
[n-62-21-19:05481] *** End of error message ***
[n-62-21-8:31841] *** Process received signal ***
[n-62-21-8:31841] Signal: Segmentation fault (11)
[n-62-21-8:31841] Signal code: Address not mapped (1)
[n-62-21-8:31841] Failing at address: 0x58000
[n-62-21-8:31841] [ 0] /lib64/libpthread.so.0(+0xf630)[0x7f42e3cf4630]
[n-62-21-8:31841] [ 1] /opt/oracle/developerstudio12.6/lib/compilers/rtlibs/usr/lib/amd64/libfsu.so.1(__f90_sur_n+0x8b0)[0x7f42e43f3a70]
[n-62-21-8:31841] [ 2] ./diff2d_mpi.e[0x407dc3]
[n-62-21-8:31841] [ 3] ./diff2d_mpi.e[0x4070df]
[n-62-21-8:31841] [ 4] /lib64/libc.so.6(__libc_start_main+0xf5)[0x7f42e3637555]
[n-62-21-8:31841] [ 5] ./diff2d_mpi.e[0x4016f2]
[n-62-21-8:31841] *** End of error message ***
[n-62-21-16:25952] *** Process received signal ***
[n-62-21-16:25952] Signal: Segmentation fault (11)
[n-62-21-16:25952] Signal code: Address not mapped (1)
[n-62-21-16:25952] Failing at address: 0x20000
[n-62-21-16:25952] [ 0] /lib64/libpthread.so.0(+0xf630)[0x7f9c5862f630]
[n-62-21-16:25952] [ 1] /opt/oracle/developerstudio12.6/lib/compilers/rtlibs/usr/lib/amd64/libfsu.so.1(__f90_sur_n+0x8b0)[0x7f9c58d2ea70]
[n-62-21-16:25952] [ 2] ./diff2d_mpi.e[0x407dc3]
[n-62-21-16:25952] [ 3] ./diff2d_mpi.e[0x4070df]
[n-62-21-16:25952] [ 4] /lib64/libc.so.6(__libc_start_main+0xf5)[0x7f9c57f72555]
[n-62-21-16:25952] [ 5] ./diff2d_mpi.e[0x4016f2]
[n-62-21-16:25952] *** End of error message ***
[n-62-21-17:12127] *** Process received signal ***
[n-62-21-17:12127] Signal: Segmentation fault (11)
[n-62-21-17:12127] Signal code: Address not mapped (1)
[n-62-21-17:12127] Failing at address: 0x18000
[n-62-21-17:12127] [ 0] /lib64/libpthread.so.0(+0xf630)[0x7f2f9f639630]
[n-62-21-17:12127] [ 1] /opt/oracle/developerstudio12.6/lib/compilers/rtlibs/usr/lib/amd64/libfsu.so.1(__f90_sur_n+0x8ea)[0x7f2f9fd38aaa]
[n-62-21-17:12127] [ 2] ./diff2d_mpi.e[0x407dc3]
[n-62-21-17:12127] [ 3] ./diff2d_mpi.e[0x4070df]
[n-62-21-17:12127] [ 4] /lib64/libc.so.6(__libc_start_main+0xf5)[0x7f2f9ef7c555]
[n-62-21-17:12127] [ 5] ./diff2d_mpi.e[0x4016f2]
[n-62-21-17:12127] *** End of error message ***
[n-62-21-14:03861] *** Process received signal ***
[n-62-21-14:03861] Signal: Segmentation fault (11)
[n-62-21-14:03861] Signal code: Address not mapped (1)
[n-62-21-14:03861] Failing at address: 0x30000
[n-62-21-14:03861] [ 0] /lib64/libpthread.so.0(+0xf630)[0x7f28a4009630]
[n-62-21-14:03861] [ 1] /opt/oracle/developerstudio12.6/lib/compilers/rtlibs/usr/lib/amd64/libfsu.so.1(__f90_sur_n+0x8b0)[0x7f28a4708a70]
[n-62-21-14:03861] [ 2] ./diff2d_mpi.e[0x407dc3]
[n-62-21-14:03861] [ 3] ./diff2d_mpi.e[0x4070df]
[n-62-21-14:03861] [ 4] /lib64/libc.so.6(__libc_start_main+0xf5)[0x7f28a394c555]
[n-62-21-14:03861] [ 5] ./diff2d_mpi.e[0x4016f2]
[n-62-21-14:03861] *** End of error message ***
[n-62-21-20:03351] [ 0] /lib64/libpthread.so.0(+0xf630)[0x7fb14ee6d630]
[n-62-21-20:03351] [ 1] /opt/oracle/developerstudio12.6/lib/compilers/rtlibs/usr/lib/amd64/libfsu.so.1(__f90_sur_n+0x8ea)[0x7fb14f56caaa]
[n-62-21-20:03351] [ 2] ./diff2d_mpi.e[0x407dc3]
[n-62-21-20:03351] [ 3] ./diff2d_mpi.e[0x4070df]
[n-62-21-20:03351] [ 4] /lib64/libc.so.6(__libc_start_main+0xf5)[0x7fb14e7b0555]
[n-62-21-20:03351] [ 5] ./diff2d_mpi.e[0x4016f2]
[n-62-21-20:03351] *** End of error message ***
[n-62-21-12:15429] *** Process received signal ***
[n-62-21-12:15429] Signal: Segmentation fault (11)
[n-62-21-12:15429] Signal code: Address not mapped (1)
[n-62-21-12:15429] Failing at address: 0x40000
[n-62-21-12:15429] [ 0] /lib64/libpthread.so.0(+0xf630)[0x7f67f2c2e630]
[n-62-21-12:15429] [ 1] /opt/oracle/developerstudio12.6/lib/compilers/rtlibs/usr/lib/amd64/libfsu.so.1(__f90_sur_n+0x8b0)[0x7f67f332da70]
[n-62-21-12:15429] [ 2] ./diff2d_mpi.e[0x407dc3]
[n-62-21-12:15429] [ 3] ./diff2d_mpi.e[0x4070df]
[n-62-21-12:15429] [ 4] /lib64/libc.so.6(__libc_start_main+0xf5)[0x7f67f2571555]
[n-62-21-12:15429] [ 5] ./diff2d_mpi.e[0x4016f2]
[n-62-21-12:15429] *** End of error message ***
[n-62-21-10:26898] *** Process received signal ***
[n-62-21-10:26898] Signal: Segmentation fault (11)
[n-62-21-10:26898] Signal code: Address not mapped (1)
[n-62-21-10:26898] Failing at address: 0x50000
[n-62-21-10:26898] [ 0] /lib64/libpthread.so.0(+0xf630)[0x7f265f699630]
[n-62-21-10:26898] [ 1] /opt/oracle/developerstudio12.6/lib/compilers/rtlibs/usr/lib/amd64/libfsu.so.1(__f90_sur_n+0x8b0)[0x7f265fd98a70]
[n-62-21-10:26898] [ 2] ./diff2d_mpi.e[0x407dc3]
[n-62-21-10:26898] [ 3] ./diff2d_mpi.e[0x4070df]
[n-62-21-10:26898] [ 4] /lib64/libc.so.6(__libc_start_main+0xf5)[0x7f265efdc555]
[n-62-21-10:26898] [ 5] ./diff2d_mpi.e[0x4016f2]
[n-62-21-10:26898] *** End of error message ***
[n-62-21-1:04257] *** Process received signal ***
[n-62-21-1:04257] Signal: Segmentation fault (11)
[n-62-21-1:04257] Signal code: Address not mapped (1)
[n-62-21-1:04257] Failing at address: 0x60000
[n-62-21-1:04257] [ 0] /lib64/libpthread.so.0(+0xf630)[0x7f7282ecc630]
[n-62-21-1:04257] [ 1] /opt/oracle/developerstudio12.6/lib/compilers/rtlibs/usr/lib/amd64/libfsu.so.1(__f90_sur_n+0x8b0)[0x7f72835cba70]
[n-62-21-1:04257] [ 2] ./diff2d_mpi.e[0x407dc3]
[n-62-21-1:04257] [ 3] ./diff2d_mpi.e[0x4070df]
[n-62-21-1:04257] [ 4] /lib64/libc.so.6(__libc_start_main+0xf5)[0x7f728280f555]
[n-62-21-1:04257] [ 5] ./diff2d_mpi.e[0x4016f2]
[n-62-21-1:04257] *** End of error message ***
[n-62-21-13:26777] *** Process received signal ***
[n-62-21-13:26777] Signal: Segmentation fault (11)
[n-62-21-13:26777] Signal code: Address not mapped (1)
[n-62-21-13:26777] Failing at address: 0x38000
[n-62-21-13:26777] [ 0] /lib64/libpthread.so.0(+0xf630)[0x7f5222e7b630]
[n-62-21-13:26777] [ 1] /opt/oracle/developerstudio12.6/lib/compilers/rtlibs/usr/lib/amd64/libfsu.so.1(__f90_sur_n+0x8b0)[0x7f522357aa70]
[n-62-21-13:26777] [ 2] ./diff2d_mpi.e[0x407dc3]
[n-62-21-13:26777] [ 3] ./diff2d_mpi.e[0x4070df]
[n-62-21-13:26777] [ 4] /lib64/libc.so.6(__libc_start_main+0xf5)[0x7f52227be555]
[n-62-21-13:26777] [ 5] ./diff2d_mpi.e[0x4016f2]
[n-62-21-13:26777] *** End of error message ***
[n-62-21-11:08435] *** Process received signal ***
[n-62-21-11:08435] Signal: Segmentation fault (11)
[n-62-21-11:08435] Signal code: Address not mapped (1)
[n-62-21-11:08435] Failing at address: 0x48000
[n-62-21-11:08435] [ 0] /lib64/libpthread.so.0(+0xf630)[0x7f408743f630]
[n-62-21-11:08435] [ 1] /opt/oracle/developerstudio12.6/lib/compilers/rtlibs/usr/lib/amd64/libfsu.so.1(__f90_sur_n+0x8b0)[0x7f4087b3ea70]
[n-62-21-11:08435] [ 2] ./diff2d_mpi.e[0x407dc3]
[n-62-21-11:08435] [ 3] ./diff2d_mpi.e[0x4070df]
[n-62-21-11:08435] [ 4] /lib64/libc.so.6(__libc_start_main+0xf5)[0x7f4086d82555]
[n-62-21-11:08435] [ 5] ./diff2d_mpi.e[0x4016f2]
[n-62-21-11:08435] *** End of error message ***
--------------------------------------------------------------------------
mpirun noticed that process rank 1 with PID 13101 on node n-62-21-22 exited on signal 11 (Segmentation fault).
--------------------------------------------------------------------------
