Loaded module: studio/12u6
Loaded module: mpi/3.1.3-oracle-12u6
 # ___________ PROGRAM STARTED ___________ #

WARNING! Input time-step size (dt) is lower than Fourier limit or equal zero!Time-step size forced to the Fourier limit: dt =0.00000001
WARNING! Input time-step size (dt) is lower than Fourier limit or equal zero!Time-step size forced to the Fourier limit: dt =0.00000001
WARNING! Input time-step size (dt) is lower than Fourier limit or equal zero!Time-step size forced to the Fourier limit: dt =0.00000001
WARNING! Input time-step size (dt) is lower than Fourier limit or equal zero!Time-step size forced to the Fourier limit: dt =0.00000001
WARNING! Input time-step size (dt) is lower than Fourier limit or equal zero!Time-step size forced to the Fourier limit: dt =0.00000001
WARNING! Input time-step size (dt) is lower than Fourier limit or equal zero!Time-step size forced to the Fourier limit: dt =0.00000001
WARNING! Input time-step size (dt) is lower than Fourier limit or equal zero!Time-step size forced to the Fourier limit: dt =0.00000001
WARNING! Input time-step size (dt) is lower than Fourier limit or equal zero!Time-step size forced to the Fourier limit: dt =0.00000001
WARNING! Input time-step size (dt) is lower than Fourier limit or equal zero!Time-step size forced to the Fourier limit: dt =0.00000001
WARNING! Input time-step size (dt) is lower than Fourier limit or equal zero!Time-step size forced to the Fourier limit: dt =0.00000001
WARNING! Input time-step size (dt) is lower than Fourier limit or equal zero!Time-step size forced to the Fourier limit: dt =0.00000001
WARNING! Input time-step size (dt) is lower than Fourier limit or equal zero!Time-step size forced to the Fourier limit: dt =0.00000001
WARNING! Input time-step size (dt) is lower than Fourier limit or equal zero!Time-step size forced to the Fourier limit: dt =0.00000001
WARNING! Input time-step size (dt) is lower than Fourier limit or equal zero!Time-step size forced to the Fourier limit: dt =0.00000001
WARNING! Input time-step size (dt) is lower than Fourier limit or equal zero!Time-step size forced to the Fourier limit: dt =0.00000001
WARNING! Input time-step size (dt) is lower than Fourier limit or equal zero!Time-step size forced to the Fourier limit: dt =0.00000001
WARNING! Input time-step size (dt) is lower than Fourier limit or equal zero!Time-step size forced to the Fourier limit: dt =0.00000001
WARNING! Input time-step size (dt) is lower than Fourier limit or equal zero!Time-step size forced to the Fourier limit: dt =0.00000001
WARNING! Input time-step size (dt) is lower than Fourier limit or equal zero!Time-step size forced to the Fourier limit: dt =0.00000001
WARNING! Input time-step size (dt) is lower than Fourier limit or equal zero!Time-step size forced to the Fourier limit: dt =0.00000001
WARNING! Input time-step size (dt) is lower than Fourier limit or equal zero!Time-step size forced to the Fourier limit: dt =0.00000001
WARNING! Input time-step size (dt) is lower than Fourier limit or equal zero!Time-step size forced to the Fourier limit: dt =0.00000001
 elapsed wall clock time: 3.90006297203945
[n-62-21-20:03397] *** Process received signal ***
[n-62-21-20:03397] Signal: Segmentation fault (11)
[n-62-21-20:03397] Signal code: Address not mapped (1)
[n-62-21-20:03397] Failing at address: 0x10000
[n-62-21-22:13145] *** Process received signal ***
[n-62-21-22:13145] Signal: Segmentation fault (11)
[n-62-21-22:13145] Signal code: Address not mapped (1)
[n-62-21-22:13145] Failing at address: 0x8000
[n-62-21-20:03397] [ 0] /lib64/libpthread.so.0(+0xf630)[0x7fe6ab28a630]
[n-62-21-20:03397] [ 1] /opt/oracle/developerstudio12.6/lib/compilers/rtlibs/usr/lib/amd64/libfsu.so.1(__f90_sur_n+0x8ea)[0x7fe6ab989aaa]
[n-62-21-20:03397] [ 2] ./diff2d_mpi.e[0x407dc3]
[n-62-21-22:13145] [n-62-21-20:03397] [ 0] [ 3] ./diff2d_mpi.e[0x4070df]
/lib64/libpthread.so.0(+0xf630)[0x7f865bbdb630]
[n-62-21-20:03397] [n-62-21-22:13145] [ 4] [ 1] /lib64/libc.so.6(__libc_start_main+0xf5)[0x7fe6aabcd555]
/opt/oracle/developerstudio12.6/lib/compilers/rtlibs/usr/lib/amd64/libfsu.so.1(__f90_sur_n+0x90d)[0x7f865c2daacd]
[n-62-21-20:03397] [n-62-21-22:13145] [ 5] [ 2] ./diff2d_mpi.e[0x4016f2]
./diff2d_mpi.e[0x407dc3]
[n-62-21-20:03397] *** End of error message ***
[n-62-21-22:13145] [ 3] ./diff2d_mpi.e[0x4070df]
[n-62-21-22:13145] [ 4] /lib64/libc.so.6(__libc_start_main+0xf5)[0x7f865b51e555]
[n-62-21-22:13145] [ 5] ./diff2d_mpi.e[0x4016f2]
[n-62-21-22:13145] *** End of error message ***
[n-62-21-17:12172] *** Process received signal ***
[n-62-21-17:12172] Signal: Segmentation fault (11)
[n-62-21-17:12172] Signal code: Address not mapped (1)
[n-62-21-17:12172] Failing at address: 0x18000
[n-62-21-17:12172] [ 0] /lib64/libpthread.so.0(+0xf630)[0x7f8edc2f7630]
[n-62-21-17:12172] [ 1] /opt/oracle/developerstudio12.6/lib/compilers/rtlibs/usr/lib/amd64/libfsu.so.1(__f90_sur_n+0x8ea)[0x7f8edc9f6aaa]
[n-62-21-17:12172] [ 2] ./diff2d_mpi.e[0x407dc3]
[n-62-21-17:12172] [ 3] ./diff2d_mpi.e[0x4070df]
[n-62-21-17:12172] [ 4] /lib64/libc.so.6(__libc_start_main+0xf5)[0x7f8edbc3a555]
[n-62-21-17:12172] [ 5] ./diff2d_mpi.e[0x4016f2]
[n-62-21-17:12172] *** End of error message ***
[n-62-21-16:25997] *** Process received signal ***
[n-62-21-16:25997] Signal: Segmentation fault (11)
[n-62-21-16:25997] Signal code: Address not mapped (1)
[n-62-21-16:25997] Failing at address: 0x20000
--------------------------------------------------------------------------
Primary job  terminated normally, but 1 process returned
a non-zero exit code. Per user-direction, the job has been aborted.
--------------------------------------------------------------------------
[n-62-21-15:04756] *** Process received signal ***
[n-62-21-16:25997] [ 0] [n-62-21-15:04756] Signal: Segmentation fault (11)
[n-62-21-15:04756] Signal code: Address not mapped (1)
[n-62-21-15:04756] Failing at address: 0x28000
/lib64/libpthread.so.0(+0xf630)[0x7fae28a3e630]
[n-62-21-16:25997] [ 1] /opt/oracle/developerstudio12.6/lib/compilers/rtlibs/usr/lib/amd64/libfsu.so.1(__f90_sur_n+0x8b0)[0x7fae2913da70]
[n-62-21-16:25997] [ 2] ./diff2d_mpi.e[0x407dc3]
[n-62-21-16:25997] [ 3] ./diff2d_mpi.e[0x4070df]
[n-62-21-16:25997] [ 4] /lib64/libc.so.6(__libc_start_main+0xf5)[0x7fae28381555]
[n-62-21-16:25997] [ 5] ./diff2d_mpi.e[0x4016f2]
[n-62-21-16:25997] *** End of error message ***
[n-62-21-15:04756] [ 0] /lib64/libpthread.so.0(+0xf630)[0x7f539e6a5630]
[n-62-21-15:04756] [ 1] /opt/oracle/developerstudio12.6/lib/compilers/rtlibs/usr/lib/amd64/libfsu.so.1(__f90_sur_n+0x8b0)[0x7f539eda4a70]
[n-62-21-15:04756] [ 2] ./diff2d_mpi.e[0x407dc3]
[n-62-21-15:04756] [ 3] ./diff2d_mpi.e[0x4070df]
[n-62-21-15:04756] [ 4] /lib64/libc.so.6(__libc_start_main+0xf5)[0x7f539dfe8555]
[n-62-21-15:04756] [ 5] ./diff2d_mpi.e[0x4016f2]
[n-62-21-15:04756] *** End of error message ***
 RMS =  0.09774492285174265

 # ___________ PROGRAM SUCCESSFUL ___________ #
[n-62-21-14:03905] *** Process received signal ***
[n-62-21-14:03905] Signal: Segmentation fault (11)
[n-62-21-14:03905] Signal code: Address not mapped (1)
[n-62-21-14:03905] Failing at address: 0x30000
[n-62-21-14:03905] [ 0] /lib64/libpthread.so.0(+0xf630)[0x7f2977c7e630]
[n-62-21-14:03905] [ 1] /opt/oracle/developerstudio12.6/lib/compilers/rtlibs/usr/lib/amd64/libfsu.so.1(__f90_sur_n+0x8b0)[0x7f297837da70]
[n-62-21-14:03905] [ 2] ./diff2d_mpi.e[0x407dc3]
[n-62-21-14:03905] [ 3] ./diff2d_mpi.e[0x4070df]
[n-62-21-14:03905] [ 4] /lib64/libc.so.6(__libc_start_main+0xf5)[0x7f29775c1555]
[n-62-21-14:03905] [ 5] ./diff2d_mpi.e[0x4016f2]
[n-62-21-14:03905] *** End of error message ***
[n-62-21-12:15474] *** Process received signal ***
[n-62-21-12:15474] Signal: Segmentation fault (11)
[n-62-21-12:15474] Signal code: Address not mapped (1)
[n-62-21-12:15474] Failing at address: 0x40000
[n-62-21-12:15474] [ 0] /lib64/libpthread.so.0(+0xf630)[0x7f4e8e763630]
[n-62-21-12:15474] [ 1] /opt/oracle/developerstudio12.6/lib/compilers/rtlibs/usr/lib/amd64/libfsu.so.1(__f90_sur_n+0x8b0)[0x7f4e8ee62a70]
[n-62-21-12:15474] [ 2] ./diff2d_mpi.e[0x407dc3]
[n-62-21-12:15474] [ 3] ./diff2d_mpi.e[0x4070df]
[n-62-21-12:15474] [ 4] /lib64/libc.so.6(__libc_start_main+0xf5)[0x7f4e8e0a6555]
[n-62-21-12:15474] [ 5] ./diff2d_mpi.e[0x4016f2]
[n-62-21-12:15474] *** End of error message ***
[n-62-21-8:31889] *** Process received signal ***
[n-62-21-8:31889] Signal: Segmentation fault (11)
[n-62-21-8:31889] Signal code: Address not mapped (1)
[n-62-21-8:31889] Failing at address: 0x58000
[n-62-21-8:31889] [ 0] /lib64/libpthread.so.0(+0xf630)[0x7ff67805e630]
[n-62-21-8:31889] [ 1] /opt/oracle/developerstudio12.6/lib/compilers/rtlibs/usr/lib/amd64/libfsu.so.1(__f90_sur_n+0x8b0)[0x7ff67875da70]
[n-62-21-8:31889] [ 2] ./diff2d_mpi.e[0x407dc3]
[n-62-21-8:31889] [ 3] ./diff2d_mpi.e[0x4070df]
[n-62-21-8:31889] [ 4] /lib64/libc.so.6(__libc_start_main+0xf5)[0x7ff6779a1555]
[n-62-21-8:31889] [ 5] ./diff2d_mpi.e[0x4016f2]
[n-62-21-8:31889] *** End of error message ***
[n-62-21-1:04301] *** Process received signal ***
[n-62-21-1:04301] Signal: Segmentation fault (11)
[n-62-21-1:04301] Signal code: Address not mapped (1)
[n-62-21-1:04301] Failing at address: 0x60000
[n-62-21-1:04301] [ 0] /lib64/libpthread.so.0(+0xf630)[0x7f2dbaf1b630]
[n-62-21-1:04301] [ 1] /opt/oracle/developerstudio12.6/lib/compilers/rtlibs/usr/lib/amd64/libfsu.so.1(__f90_sur_n+0x8b0)[0x7f2dbb61aa70]
[n-62-21-1:04301] [ 2] ./diff2d_mpi.e[0x407dc3]
[n-62-21-1:04301] [ 3] ./diff2d_mpi.e[0x4070df]
[n-62-21-1:04301] [ 4] /lib64/libc.so.6(__libc_start_main+0xf5)[0x7f2dba85e555]
[n-62-21-1:04301] [ 5] ./diff2d_mpi.e[0x4016f2]
[n-62-21-1:04301] *** End of error message ***
[n-62-21-13:26822] *** Process received signal ***
[n-62-21-13:26822] Signal: Segmentation fault (11)
[n-62-21-13:26822] Signal code: Address not mapped (1)
[n-62-21-13:26822] Failing at address: 0x38000
[n-62-21-13:26822] [ 0] /lib64/libpthread.so.0(+0xf630)[0x7f8dfd663630]
[n-62-21-13:26822] [ 1] /opt/oracle/developerstudio12.6/lib/compilers/rtlibs/usr/lib/amd64/libfsu.so.1(__f90_sur_n+0x8b0)[0x7f8dfdd62a70]
[n-62-21-13:26822] [ 2] ./diff2d_mpi.e[0x407dc3]
[n-62-21-13:26822] [ 3] ./diff2d_mpi.e[0x4070df]
[n-62-21-13:26822] [ 4] /lib64/libc.so.6(__libc_start_main+0xf5)[0x7f8dfcfa6555]
[n-62-21-13:26822] [ 5] ./diff2d_mpi.e[0x4016f2]
[n-62-21-13:26822] *** End of error message ***
[n-62-21-10:26942] *** Process received signal ***
[n-62-21-10:26942] Signal: Segmentation fault (11)
[n-62-21-10:26942] Signal code: Address not mapped (1)
[n-62-21-10:26942] Failing at address: 0x50000
[n-62-21-10:26942] [ 0] /lib64/libpthread.so.0(+0xf630)[0x7f5a84143630]
[n-62-21-10:26942] [ 1] /opt/oracle/developerstudio12.6/lib/compilers/rtlibs/usr/lib/amd64/libfsu.so.1(__f90_sur_n+0x8b0)[0x7f5a84842a70]
[n-62-21-10:26942] [ 2] ./diff2d_mpi.e[0x407dc3]
[n-62-21-10:26942] [ 3] ./diff2d_mpi.e[0x4070df]
[n-62-21-10:26942] [ 4] /lib64/libc.so.6(__libc_start_main+0xf5)[0x7f5a83a86555]
[n-62-21-10:26942] [ 5] ./diff2d_mpi.e[0x4016f2]
[n-62-21-10:26942] *** End of error message ***
[n-62-21-24:20182] *** Process received signal ***
[n-62-21-24:20182] Signal: Segmentation fault (11)
[n-62-21-24:20182] Signal code: Address not mapped (1)
[n-62-21-24:20182] Failing at address: 0x68000
[n-62-21-24:20182] [ 0] /lib64/libpthread.so.0(+0xf630)[0x7f4c0e484630]
[n-62-21-24:20182] [ 1] /opt/oracle/developerstudio12.6/lib/compilers/rtlibs/usr/lib/amd64/libfsu.so.1(__f90_sur_n+0x8b0)[0x7f4c0eb83a70]
[n-62-21-24:20182] [ 2] ./diff2d_mpi.e[0x407dc3]
[n-62-21-24:20182] [ 3] ./diff2d_mpi.e[0x4070df]
[n-62-21-24:20182] [ 4] /lib64/libc.so.6(__libc_start_main+0xf5)[0x7f4c0ddc7555]
[n-62-21-24:20182] [ 5] ./diff2d_mpi.e[0x4016f2]
[n-62-21-24:20182] *** End of error message ***
[n-62-21-5:16840] *** Process received signal ***
[n-62-21-5:16840] Signal: Segmentation fault (11)
[n-62-21-5:16840] Signal code: Address not mapped (1)
[n-62-21-5:16840] Failing at address: 0x88000
[n-62-21-5:16840] [ 0] /lib64/libpthread.so.0(+0xf630)[0x7fc6e154e630]
[n-62-21-5:16840] [ 1] /opt/oracle/developerstudio12.6/lib/compilers/rtlibs/usr/lib/amd64/libfsu.so.1(__f90_sur_n+0x8b0)[0x7fc6e1c4da70]
[n-62-21-5:16840] [ 2] ./diff2d_mpi.e[0x407dc3]
[n-62-21-5:16840] [ 3] ./diff2d_mpi.e[0x4070df]
[n-62-21-5:16840] [ 4] /lib64/libc.so.6(__libc_start_main+0xf5)[0x7fc6e0e91555]
[n-62-21-5:16840] [ 5] ./diff2d_mpi.e[0x4016f2]
[n-62-21-5:16840] *** End of error message ***
[n-62-21-18:27995] *** Process received signal ***
[n-62-21-18:27995] Signal: Segmentation fault (11)
[n-62-21-18:27995] Signal code: Address not mapped (1)
[n-62-21-18:27995] Failing at address: 0x80000
[n-62-21-18:27995] [ 0] /lib64/libpthread.so.0(+0xf630)[0x7f8814443630]
[n-62-21-18:27995] [ 1] /opt/oracle/developerstudio12.6/lib/compilers/rtlibs/usr/lib/amd64/libfsu.so.1(__f90_sur_n+0x8b0)[0x7f8814b42a70]
[n-62-21-18:27995] [ 2] ./diff2d_mpi.e[0x407dc3]
[n-62-21-18:27995] [ 3] ./diff2d_mpi.e[0x4070df]
[n-62-21-18:27995] [ 4] /lib64/libc.so.6(__libc_start_main+0xf5)[0x7f8813d86555]
[n-62-21-18:27995] [ 5] ./diff2d_mpi.e[0x4016f2]
[n-62-21-18:27995] *** End of error message ***
[n-62-21-21:19311] *** Process received signal ***
[n-62-21-21:19311] Signal: Segmentation fault (11)
[n-62-21-21:19311] Signal code: Address not mapped (1)
[n-62-21-21:19311] Failing at address: 0x70000
[n-62-21-21:19311] [ 0] /lib64/libpthread.so.0(+0xf630)[0x7f4e9a404630]
[n-62-21-21:19311] [ 1] /opt/oracle/developerstudio12.6/lib/compilers/rtlibs/usr/lib/amd64/libfsu.so.1(__f90_sur_n+0x8b0)[0x7f4e9ab03a70]
[n-62-21-21:19311] [ 2] ./diff2d_mpi.e[0x407dc3]
[n-62-21-21:19311] [ 3] ./diff2d_mpi.e[0x4070df]
[n-62-21-21:19311] [ 4] /lib64/libc.so.6(__libc_start_main+0xf5)[0x7f4e99d47555]
[n-62-21-21:19311] [ 5] ./diff2d_mpi.e[0x4016f2]
[n-62-21-21:19311] *** End of error message ***
[n-62-21-11:08479] *** Process received signal ***
[n-62-21-11:08479] Signal: Segmentation fault (11)
[n-62-21-11:08479] Signal code: Address not mapped (1)
[n-62-21-11:08479] Failing at address: 0x48000
[n-62-21-11:08479] [ 0] /lib64/libpthread.so.0(+0xf630)[0x7fa2a2ac3630]
[n-62-21-11:08479] [ 1] /opt/oracle/developerstudio12.6/lib/compilers/rtlibs/usr/lib/amd64/libfsu.so.1(__f90_sur_n+0x8b0)[0x7fa2a31c2a70]
[n-62-21-11:08479] [ 2] ./diff2d_mpi.e[0x407dc3]
[n-62-21-11:08479] [ 3] ./diff2d_mpi.e[0x4070df]
[n-62-21-11:08479] [ 4] /lib64/libc.so.6(__libc_start_main+0xf5)[0x7fa2a2406555]
[n-62-21-11:08479] [ 5] ./diff2d_mpi.e[0x4016f2]
[n-62-21-11:08479] *** End of error message ***
[n-62-21-4:20027] *** Process received signal ***
[n-62-21-4:20027] Signal: Segmentation fault (11)
[n-62-21-4:20027] Signal code: Address not mapped (1)
[n-62-21-4:20027] Failing at address: 0x90000
[n-62-21-4:20027] [ 0] /lib64/libpthread.so.0(+0xf630)[0x7f18d58ab630]
[n-62-21-4:20027] [ 1] /opt/oracle/developerstudio12.6/lib/compilers/rtlibs/usr/lib/amd64/libfsu.so.1(__f90_sur_n+0x8b0)[0x7f18d5faaa70]
[n-62-21-4:20027] [ 2] ./diff2d_mpi.e[0x407dc3]
[n-62-21-4:20027] [ 3] ./diff2d_mpi.e[0x4070df]
[n-62-21-4:20027] [ 4] /lib64/libc.so.6(__libc_start_main+0xf5)[0x7f18d51ee555]
[n-62-21-4:20027] [ 5] ./diff2d_mpi.e[0x4016f2]
[n-62-21-4:20027] *** End of error message ***
[n-62-21-3:00970] *** Process received signal ***
[n-62-21-3:00970] Signal: Segmentation fault (11)
[n-62-21-3:00970] Signal code: Address not mapped (1)
[n-62-21-3:00970] Failing at address: 0x98000
[n-62-21-3:00970] [ 0] /lib64/libpthread.so.0(+0xf630)[0x7f5f402dc630]
[n-62-21-3:00970] [ 1] /opt/oracle/developerstudio12.6/lib/compilers/rtlibs/usr/lib/amd64/libfsu.so.1(__f90_sur_n+0x8b0)[0x7f5f409dba70]
[n-62-21-3:00970] [ 2] ./diff2d_mpi.e[0x407dc3]
[n-62-21-3:00970] [ 3] ./diff2d_mpi.e[0x4070df]
[n-62-21-3:00970] [ 4] /lib64/libc.so.6(__libc_start_main+0xf5)[0x7f5f3fc1f555]
[n-62-21-3:00970] [ 5] ./diff2d_mpi.e[0x4016f2]
[n-62-21-3:00970] *** End of error message ***
[n-62-21-6:03676] *** Process received signal ***
[n-62-21-6:03676] Signal: Segmentation fault (11)
[n-62-21-6:03676] Signal code: Address not mapped (1)
[n-62-21-6:03676] Failing at address: 0xa0000
[n-62-21-6:03676] [ 0] /lib64/libpthread.so.0(+0xf630)[0x7f5af0025630]
[n-62-21-6:03676] [ 1] /opt/oracle/developerstudio12.6/lib/compilers/rtlibs/usr/lib/amd64/libfsu.so.1(__f90_sur_n+0x8b0)[0x7f5af0724a70]
[n-62-21-6:03676] [ 2] ./diff2d_mpi.e[0x407dc3]
[n-62-21-6:03676] [ 3] ./diff2d_mpi.e[0x4070df]
[n-62-21-6:03676] [ 4] /lib64/libc.so.6(__libc_start_main+0xf5)[0x7f5aef968555]
[n-62-21-6:03676] [ 5] ./diff2d_mpi.e[0x4016f2]
[n-62-21-6:03676] *** End of error message ***
[n-62-21-2:30054] *** Process received signal ***
[n-62-21-2:30054] Signal: Segmentation fault (11)
[n-62-21-2:30054] Signal code: Address not mapped (1)
[n-62-21-2:30054] Failing at address: 0xa8000
[n-62-21-2:30054] [ 0] /lib64/libpthread.so.0(+0xf630)[0x7f7446568630]
[n-62-21-2:30054] [ 1] /opt/oracle/developerstudio12.6/lib/compilers/rtlibs/usr/lib/amd64/libfsu.so.1(__f90_sur_n+0x8b0)[0x7f7446c67a70]
[n-62-21-2:30054] [ 2] ./diff2d_mpi.e[0x407dc3]
[n-62-21-2:30054] [ 3] ./diff2d_mpi.e[0x4070df]
[n-62-21-2:30054] [ 4] /lib64/libc.so.6(__libc_start_main+0xf5)[0x7f7445eab555]
[n-62-21-2:30054] [ 5] ./diff2d_mpi.e[0x4016f2]
[n-62-21-2:30054] *** End of error message ***
[n-62-21-19:05513] *** Process received signal ***
[n-62-21-19:05513] Signal: Segmentation fault (11)
[n-62-21-19:05513] Signal code: Address not mapped (1)
[n-62-21-19:05513] Failing at address: 0x78000
[n-62-21-19:05513] [ 0] /lib64/libpthread.so.0(+0xf630)[0x7fdfd5b00630]
[n-62-21-19:05513] [ 1] /opt/oracle/developerstudio12.6/lib/compilers/rtlibs/usr/lib/amd64/libfsu.so.1(__f90_sur_n+0x8b0)[0x7fdfd61ffa70]
[n-62-21-19:05513] [ 2] ./diff2d_mpi.e[0x407dc3]
[n-62-21-19:05513] [ 3] ./diff2d_mpi.e[0x4070df]
[n-62-21-19:05513] [ 4] /lib64/libc.so.6(__libc_start_main+0xf5)[0x7fdfd5443555]
[n-62-21-19:05513] [ 5] ./diff2d_mpi.e[0x4016f2]
[n-62-21-19:05513] *** End of error message ***
--------------------------------------------------------------------------
mpirun noticed that process rank 1 with PID 13145 on node n-62-21-22 exited on signal 11 (Segmentation fault).
--------------------------------------------------------------------------
2 total processes killed (some possibly by mpirun during cleanup)
